R para la programación en Bioestadística y Ciencia de Datos
…
Importar la base de datos

A continuación, vamos a importar los datos a R y los vamos a guardar en un objeto llamado atenciones_migrantes. Para hacer esto, vamos a utilizar la función read_xlsx() del paquete readxl.

atenciones_migrantes <- read_xlsx(here("data", "atenciones_migrantes.xlsx"))

No estamos familiarizados con la base de datos, por lo que vamos a explorarla un poco. Por ejemplo, podemos identificar cuántas columnas y filas tiene la base de datos, así como los nombres de las columnas.

atenciones_migrantes 

# A tibble: 234,824 × 11
   MES            Año FECHA_CARGO         tipo_de_servicio SERVICIO ESPECIALIDAD
   <chr>        <dbl> <dttm>              <chr>            <chr>    <chr>       
 1 12. Diciemb…  2017 2017-04-12 00:00:00 Laboratorio      37105 M… IMAGENOLOGI…
 2 12. Diciemb…  2017 2017-04-12 00:00:00 Laboratorio      37105 M… IMAGENOLOGI…
 3 07. Julio     2017 2017-07-20 00:00:00 Laboratorio      37105 M… IMAGENOLOGI…
 4 07. Julio     2017 2017-07-20 00:00:00 Laboratorio      37105 M… IMAGENOLOGI…
 5 08. Agosto    2017 2017-10-08 00:00:00 Laboratorio      37105 M… IMAGENOLOGI…
 6 08. Agosto    2017 2017-10-08 00:00:00 Laboratorio      37105 M… IMAGENOLOGI…
 7 08. Agosto    2017 2017-08-13 00:00:00 Laboratorio      37105 M… IMAGENOLOGI…
 8 08. Agosto    2017 2017-08-13 00:00:00 Laboratorio      37105 M… IMAGENOLOGI…
 9 09. Septiem…  2017 2017-01-09 00:00:00 Laboratorio      37105 M… IMAGENOLOGI…
10 09. Septiem…  2017 2017-01-09 00:00:00 Laboratorio      37105 M… IMAGENOLOGI…
# ℹ 234,814 more rows
# ℹ 5 more variables: CANTIDAD <dbl>, VALOR_SERVICIO <dbl>, LUGAR <chr>,
#   `Curso de vida` <chr>, Sexo <chr>
…
